Lab Report 1
…
masterDF<- explore[,-c(15:27)]
masterDF <- masterDF[,-c(10)]

df <- masterDF
df$`Survival (months)` <- as.numeric(as.character(df$`Survival (months)`))

## Warning: NAs introduced by coercion

df$`Survival (months)` <- trunc(df$`Survival (months)`)
df %>% filter(!is.na(Disease), !is.na(`Survival (months)`), !is.na(df$Gender))

## # A tibble: 111 x 22
##    Sample `Age at Dx (yea Gender `Survival (mont Disease Grade Race 
##    <chr>  <chr>            <chr>             <dbl> <chr>   <chr> <chr>
##  1 900_0 --               --                   15 ASTROC II    --   
##  2 900_0 --               --                   15 GBM     --    --   
##  3 900_0 --               --                   17 ASTROC III   --   
##  4 900_0 --               --                   17 GBM     --    --   
##  5 900_0 --               --                   17 GBM     --    --   
##  6 900_0 --               --                   15 GBM     --    --   
##  7 900_0 --               --                   15 GBM     --    --   
##  8 900_0 --               --                   15 OLIGOD --    --   
##  9 900_0 --               --                   15 GBM     --    --   
## 10 900_0 --               --                   16 OLIGOD II    --   
## #  with 101 more rows, and 15 more variables: Institution <chr>,
## #   Karnofsky <chr>, `MRI Desc` <chr>, `Followup Month` <chr>, `Steroid
## #   Dose Status` <chr>, `Anti-Convulsant Status` <chr>, `OnStudy Therapy
## #   Radiation Type` <chr>, `OnStudy Therapy Chemo Agent Name` <chr>,
## #   `OnStudy Therapy Chemo Course Count` <chr>, `OnStudy Therapy Surgery
## #   Procedure Title` <chr>, `OnStudy Therapy Surgery Indication` <chr>,
## #   `OnStudy Therapy Surgery Histo Diagnosis` <chr>, `OnStudy Therapy
## #   Surgery Outcome` <chr>, ..35 <chr>, ..36 <chr>
…
